what,kind,bundleId,bundleVersion,description,time
deactivated,workbench,org.eclipse.ui.workbench,3.6.1.M20100826-1330,"",1637059433680
activated,workbench,org.eclipse.ui.workbench,3.6.1.M20100826-1330,"",1637059447910
executed,command,org.eclipse.ui,3.6.1.M20100826-1330,"org.eclipse.ui.edit.paste",1637059459354
executed,command,org.eclipse.ui,3.6.1.M20100826-1330,"org.eclipse.ui.file.save",1637059471963
activated,editor,org.eclipse.jdt.ui,3.6.1.r361_v20100825-0800,"org.eclipse.jdt.ui.CompilationUnitEditor",1637059489631
activated,editor,org.eclipse.jdt.ui,3.6.1.r361_v20100825-0800,"org.eclipse.jdt.ui.CompilationUnitEditor",1637059525062
activated,editor,org.eclipse.jdt.ui,3.6.1.r361_v20100825-0800,"org.eclipse.jdt.ui.CompilationUnitEditor",1637059528633
deactivated,workbench,org.eclipse.ui.workbench,3.6.1.M20100826-1330,"",1637059549813
deactivated,workbench,org.eclipse.ui.workbench,3.6.1.M20100826-1330,"",1637059551048
deactivated,workbench,org.eclipse.ui.workbench,3.6.1.M20100826-1330,"",1637059556685
deactivated,workbench,org.eclipse.ui.workbench,3.6.1.M20100826-1330,"",1637059559867
deactivated,workbench,org.eclipse.ui.workbench,3.6.1.M20100826-1330,"",1637059560182
activated,workbench,org.eclipse.ui.workbench,3.6.1.M20100826-1330,"",1637062709291
deactivated,workbench,org.eclipse.ui.workbench,3.6.1.M20100826-1330,"",1637062723470
activated,workbench,org.eclipse.ui.workbench,3.6.1.M20100826-1330,"",1637062823909
deactivated,workbench,org.eclipse.ui.workbench,3.6.1.M20100826-1330,"",1637062824043
activated,workbench,org.eclipse.ui.workbench,3.6.1.M20100826-1330,"",1637062839234
activated,editor,org.eclipse.jdt.ui,3.6.1.r361_v20100825-0800,"org.eclipse.jdt.ui.CompilationUnitEditor",1637062843195
activated,editor,org.eclipse.jdt.ui,3.6.1.r361_v20100825-0800,"org.eclipse.jdt.ui.CompilationUnitEditor",1637062852124
activated,editor,org.eclipse.jdt.ui,3.6.1.r361_v20100825-0800,"org.eclipse.jdt.ui.CompilationUnitEditor",1637062853864
activated,editor,org.eclipse.jdt.ui,3.6.1.r361_v20100825-0800,"org.eclipse.jdt.ui.CompilationUnitEditor",1637062856474
executed,command,,,"AUTOGEN:::org.eclipse.jdt.internal.ui.CompilationUnitEditor.ruler.actions/org.eclipse.jdt.internal.ui.javaeditor.JavaSelectRulerAction",1637062867494
activated,editor,org.eclipse.jdt.ui,3.6.1.r361_v20100825-0800,"org.eclipse.jdt.ui.CompilationUnitEditor",1637062895467
executed,command,org.eclipse.ui,3.6.1.M20100826-1330,"org.eclipse.ui.edit.copy",1637062901666
activated,editor,org.eclipse.jdt.ui,3.6.1.r361_v20100825-0800,"org.eclipse.jdt.ui.CompilationUnitEditor",1637062906586
executed,command,org.eclipse.ui,3.6.1.M20100826-1330,"org.eclipse.ui.edit.paste",1637062912495
executed,command,org.eclipse.ui,3.6.1.M20100826-1330,"org.eclipse.ui.file.save",1637062921344
activated,view,org.eclipse.jdt.ui,3.6.1.r361_v20100825-0800,"org.eclipse.jdt.ui.PackageExplorer",1637062949099
deactivated,workbench,org.eclipse.ui.workbench,3.6.1.M20100826-1330,"",1637062958336
activated,workbench,org.eclipse.ui.workbench,3.6.1.M20100826-1330,"",1637062994739
deactivated,workbench,org.eclipse.ui.workbench,3.6.1.M20100826-1330,"",1637063000901
activated,workbench,org.eclipse.ui.workbench,3.6.1.M20100826-1330,"",1637063023056
executed,command,org.eclipse.ui,3.6.1.M20100826-1330,"org.eclipse.ui.file.properties",1637063023130
deactivated,workbench,org.eclipse.ui.workbench,3.6.1.M20100826-1330,"",1637063078787
activated,workbench,org.eclipse.ui.workbench,3.6.1.M20100826-1330,"",1637063217308
deactivated,workbench,org.eclipse.ui.workbench,3.6.1.M20100826-1330,"",1637063227739
activated,workbench,org.eclipse.ui.workbench,3.6.1.M20100826-1330,"",1637063250943
executed,command,org.eclipse.ui,3.6.1.M20100826-1330,"org.eclipse.ui.file.properties",1637063251732
deactivated,workbench,org.eclipse.ui.workbench,3.6.1.M20100826-1330,"",1637063265507
activated,workbench,org.eclipse.ui.workbench,3.6.1.M20100826-1330,"",1637063282295
executed,command,org.eclipse.ui,3.6.1.M20100826-1330,"org.eclipse.ui.file.properties",1637063282348
deactivated,workbench,org.eclipse.ui.workbench,3.6.1.M20100826-1330,"",1637063290675
activated,workbench,org.eclipse.ui.workbench,3.6.1.M20100826-1330,"",1637063426227
executed,command,org.eclipse.ui,3.6.1.M20100826-1330,"org.eclipse.ui.file.properties",1637063426306
deactivated,workbench,org.eclipse.ui.workbench,3.6.1.M20100826-1330,"",1637063441325
activated,workbench,org.eclipse.ui.workbench,3.6.1.M20100826-1330,"",1637063465509
executed,command,org.eclipse.ui,3.6.1.M20100826-1330,"org.eclipse.ui.file.properties",1637063465805
deactivated,workbench,org.eclipse.ui.workbench,3.6.1.M20100826-1330,"",1637063480667
activated,workbench,org.eclipse.ui.workbench,3.6.1.M20100826-1330,"",1637063995718
activated,editor,org.eclipse.jdt.ui,3.6.1.r361_v20100825-0800,"org.eclipse.jdt.ui.CompilationUnitEditor",1637064012558
activated,editor,org.eclipse.jdt.ui,3.6.1.r361_v20100825-0800,"org.eclipse.jdt.ui.CompilationUnitEditor",1637064014846
activated,editor,org.eclipse.jdt.ui,3.6.1.r361_v20100825-0800,"org.eclipse.jdt.ui.CompilationUnitEditor",1637064016244
activated,editor,org.eclipse.jdt.ui,3.6.1.r361_v20100825-0800,"org.eclipse.jdt.ui.CompilationUnitEditor",1637064018049
activated,editor,org.eclipse.jdt.ui,3.6.1.r361_v20100825-0800,"org.eclipse.jdt.ui.CompilationUnitEditor",1637064036468
activated,editor,org.eclipse.jdt.ui,3.6.1.r361_v20100825-0800,"org.eclipse.jdt.ui.CompilationUnitEditor",1637064043193
closed,editor,org.eclipse.jdt.ui,3.6.1.r361_v20100825-0800,"org.eclipse.jdt.ui.CompilationUnitEditor",1637064057410
deactivated,workbench,org.eclipse.ui.workbench,3.6.1.M20100826-1330,"",1637064059401
activated,workbench,org.eclipse.ui.workbench,3.6.1.M20100826-1330,"",1637064063623
closed,editor,org.eclipse.jdt.ui,3.6.1.r361_v20100825-0800,"org.eclipse.jdt.ui.CompilationUnitEditor",1637064063733
activated,editor,org.eclipse.jdt.ui,3.6.1.r361_v20100825-0800,"org.eclipse.jdt.ui.CompilationUnitEditor",1637064066203
closed,editor,org.eclipse.jdt.ui,3.6.1.r361_v20100825-0800,"org.eclipse.jdt.ui.CompilationUnitEditor",1637064066203
executed,command,org.eclipse.ui,3.6.1.M20100826-1330,"org.eclipse.ui.file.save",1637064072532
activated,view,org.eclipse.jdt.ui,3.6.1.r361_v20100825-0800,"org.eclipse.jdt.ui.PackageExplorer",1637064083145
closed,editor,org.eclipse.jdt.ui,3.6.1.r361_v20100825-0800,"org.eclipse.jdt.ui.CompilationUnitEditor",1637064083145
deactivated,workbench,org.eclipse.ui.workbench,3.6.1.M20100826-1330,"",1637064090556
activated,workbench,org.eclipse.ui.workbench,3.6.1.M20100826-1330,"",1637064115811
deactivated,workbench,org.eclipse.ui.workbench,3.6.1.M20100826-1330,"",1637064122492
activated,workbench,org.eclipse.ui.workbench,3.6.1.M20100826-1330,"",1637064145670
executed,command,org.eclipse.ui,3.6.1.M20100826-1330,"org.eclipse.ui.file.properties",1637064145800
deactivated,workbench,org.eclipse.ui.workbench,3.6.1.M20100826-1330,"",1637064158246
activated,workbench,org.eclipse.ui.workbench,3.6.1.M20100826-1330,"",1637064188890
deactivated,workbench,org.eclipse.ui.workbench,3.6.1.M20100826-1330,"",1637064200980
activated,workbench,org.eclipse.ui.workbench,3.6.1.M20100826-1330,"",1637064222702
opened,editor,org.eclipse.jdt.ui,3.6.1.r361_v20100825-0800,"org.eclipse.jdt.ui.CompilationUnitEditor",1637064223794
activated,editor,org.eclipse.jdt.ui,3.6.1.r361_v20100825-0800,"org.eclipse.jdt.ui.CompilationUnitEditor",1637064223966
activated,view,org.eclipse.jdt.ui,3.6.1.r361_v20100825-0800,"org.eclipse.jdt.ui.PackageExplorer",1637064227413
deactivated,workbench,org.eclipse.ui.workbench,3.6.1.M20100826-1330,"",1637064232841
executed,command,org.eclipse.ui,3.6.1.M20100826-1330,"org.eclipse.ui.edit.paste",1637064312154
activated,workbench,org.eclipse.ui.workbench,3.6.1.M20100826-1330,"",1637064322634
opened,editor,org.eclipse.jdt.ui,3.6.1.r361_v20100825-0800,"org.eclipse.jdt.ui.CompilationUnitEditor",1637064323263
activated,editor,org.eclipse.jdt.ui,3.6.1.r361_v20100825-0800,"org.eclipse.jdt.ui.CompilationUnitEditor",1637064323381
activated,view,org.eclipse.jdt.ui,3.6.1.r361_v20100825-0800,"org.eclipse.jdt.ui.PackageExplorer",1637064327261
deactivated,workbench,org.eclipse.ui.workbench,3.6.1.M20100826-1330,"",1637064337912
activated,workbench,org.eclipse.ui.workbench,3.6.1.M20100826-1330,"",1637064340983
executed,command,org.eclipse.ui,3.6.1.M20100826-1330,"org.eclipse.ui.file.properties",1637064341056
deactivated,workbench,org.eclipse.ui.workbench,3.6.1.M20100826-1330,"",1637064354070
executed,command,org.eclipse.ui,3.6.1.M20100826-1330,"org.eclipse.ui.edit.paste",1637064382335
activated,workbench,org.eclipse.ui.workbench,3.6.1.M20100826-1330,"",1637064385046
opened,editor,org.eclipse.jdt.ui,3.6.1.r361_v20100825-0800,"org.eclipse.jdt.ui.CompilationUnitEditor",1637064385615
activated,editor,org.eclipse.jdt.ui,3.6.1.r361_v20100825-0800,"org.eclipse.jdt.ui.CompilationUnitEditor",1637064385728
activated,view,org.eclipse.jdt.ui,3.6.1.r361_v20100825-0800,"org.eclipse.jdt.ui.PackageExplorer",1637064390355
deactivated,workbench,org.eclipse.ui.workbench,3.6.1.M20100826-1330,"",1637064395704
activated,workbench,org.eclipse.ui.workbench,3.6.1.M20100826-1330,"",1637064402968
opened,editor,org.eclipse.jdt.ui,3.6.1.r361_v20100825-0800,"org.eclipse.jdt.ui.CompilationUnitEditor",1637064403581
activated,editor,org.eclipse.jdt.ui,3.6.1.r361_v20100825-0800,"org.eclipse.jdt.ui.CompilationUnitEditor",1637064403761
activated,view,org.eclipse.jdt.ui,3.6.1.r361_v20100825-0800,"org.eclipse.jdt.ui.PackageExplorer",1637064409415
deactivated,workbench,org.eclipse.ui.workbench,3.6.1.M20100826-1330,"",1637064415279
executed,command,org.eclipse.ui,3.6.1.M20100826-1330,"org.eclipse.ui.edit.paste",1637064472310
activated,workbench,org.eclipse.ui.workbench,3.6.1.M20100826-1330,"",1637064474711
opened,editor,org.eclipse.jdt.ui,3.6.1.r361_v20100825-0800,"org.eclipse.jdt.ui.CompilationUnitEditor",1637064475316
activated,editor,org.eclipse.jdt.ui,3.6.1.r361_v20100825-0800,"org.eclipse.jdt.ui.CompilationUnitEditor",1637064475418
deactivated,workbench,org.eclipse.ui.workbench,3.6.1.M20100826-1330,"",1637064503485
activated,workbench,org.eclipse.ui.workbench,3.6.1.M20100826-1330,"",1637064551333
activated,editor,org.eclipse.jdt.ui,3.6.1.r361_v20100825-0800,"org.eclipse.jdt.ui.CompilationUnitEditor",1637064553839
executed,command,org.eclipse.ui,3.6.1.M20100826-1330,"org.eclipse.ui.edit.paste",1637064559496
activated,editor,org.eclipse.jdt.ui,3.6.1.r361_v20100825-0800,"org.eclipse.jdt.ui.CompilationUnitEditor",1637064573528
deactivated,workbench,org.eclipse.ui.workbench,3.6.1.M20100826-1330,"",1637064577476
activated,workbench,org.eclipse.ui.workbench,3.6.1.M20100826-1330,"",1637064625373
executed,command,org.eclipse.ui,3.6.1.M20100826-1330,"org.eclipse.ui.edit.paste",1637064630029
executed,command,org.eclipse.ui,3.6.1.M20100826-1330,"org.eclipse.ui.file.save",1637064646257
activated,editor,org.eclipse.jdt.ui,3.6.1.r361_v20100825-0800,"org.eclipse.jdt.ui.CompilationUnitEditor",1637064659233
activated,editor,org.eclipse.jdt.ui,3.6.1.r361_v20100825-0800,"org.eclipse.jdt.ui.CompilationUnitEditor",1637064663358
activated,view,org.eclipse.jdt.ui,3.6.1.r361_v20100825-0800,"org.eclipse.jdt.ui.PackageExplorer",1637064774549
activated,editor,org.eclipse.jdt.ui,3.6.1.r361_v20100825-0800,"org.eclipse.jdt.ui.CompilationUnitEditor",1637064779449
deactivated,workbench,org.eclipse.ui.workbench,3.6.1.M20100826-1330,"",1637064783613
activated,workbench,org.eclipse.ui.workbench,3.6.1.M20100826-1330,"",1637064796755
executed,command,org.eclipse.ui,3.6.1.M20100826-1330,"org.eclipse.ui.edit.paste",1637064805055
executed,command,org.eclipse.ui,3.6.1.M20100826-1330,"org.eclipse.ui.file.save",1637064823996
activated,editor,org.eclipse.jdt.ui,3.6.1.r361_v20100825-0800,"org.eclipse.jdt.ui.CompilationUnitEditor",1637064829813
deactivated,workbench,org.eclipse.ui.workbench,3.6.1.M20100826-1330,"",1637064834980
activated,workbench,org.eclipse.ui.workbench,3.6.1.M20100826-1330,"",1637064848836
executed,command,org.eclipse.ui,3.6.1.M20100826-1330,"org.eclipse.ui.edit.paste",1637064853527
executed,command,org.eclipse.ui,3.6.1.M20100826-1330,"org.eclipse.ui.file.save",1637064877397
activated,editor,org.eclipse.jdt.ui,3.6.1.r361_v20100825-0800,"org.eclipse.jdt.ui.CompilationUnitEditor",1637064880438
deactivated,workbench,org.eclipse.ui.workbench,3.6.1.M20100826-1330,"",1637064903486
activated,workbench,org.eclipse.ui.workbench,3.6.1.M20100826-1330,"",1637064917830
executed,command,org.eclipse.ui,3.6.1.M20100826-1330,"org.eclipse.ui.edit.paste",1637064927726
deactivated,workbench,org.eclipse.ui.workbench,3.6.1.M20100826-1330,"",1637064950505
activated,workbench,org.eclipse.ui.workbench,3.6.1.M20100826-1330,"",1637064951742
executed,command,org.eclipse.ui,3.6.1.M20100826-1330,"org.eclipse.ui.file.save",1637065001860
activated,view,org.eclipse.jdt.ui,3.6.1.r361_v20100825-0800,"org.eclipse.jdt.ui.PackageExplorer",1637065003996
deactivated,workbench,org.eclipse.ui.workbench,3.6.1.M20100826-1330,"",1637065006494
activated,workbench,org.eclipse.ui.workbench,3.6.1.M20100826-1330,"",1637065010186
executed,command,org.eclipse.ltk.ui.refactoring,3.5.0.v20100526-0800,"org.eclipse.ltk.ui.refactoring.commands.deleteResources",1637065010197
executed,command,org.eclipse.ui,3.6.1.M20100826-1330,"org.eclipse.ui.edit.delete",1637065010197
activated,editor,org.eclipse.jdt.ui,3.6.1.r361_v20100825-0800,"org.eclipse.jdt.ui.CompilationUnitEditor",1637065021259
activated,editor,org.eclipse.jdt.ui,3.6.1.r361_v20100825-0800,"org.eclipse.jdt.ui.CompilationUnitEditor",1637065029969
deactivated,workbench,org.eclipse.ui.workbench,3.6.1.M20100826-1330,"",1637065037733
activated,workbench,org.eclipse.ui.workbench,3.6.1.M20100826-1330,"",1637065043752
activated,editor,org.eclipse.jdt.ui,3.6.1.r361_v20100825-0800,"org.eclipse.jdt.ui.CompilationUnitEditor",1637065104850
activated,editor,org.eclipse.jdt.ui,3.6.1.r361_v20100825-0800,"org.eclipse.jdt.ui.CompilationUnitEditor",1637065112744
executed,command,org.eclipse.ui,3.6.1.M20100826-1330,"org.eclipse.ui.file.save",1637065211748
activated,editor,org.eclipse.jdt.ui,3.6.1.r361_v20100825-0800,"org.eclipse.jdt.ui.CompilationUnitEditor",1637065215646
deactivated,workbench,org.eclipse.ui.workbench,3.6.1.M20100826-1330,"",1637065219179
activated,workbench,org.eclipse.ui.workbench,3.6.1.M20100826-1330,"",1637065230508
executed,command,org.eclipse.ui,3.6.1.M20100826-1330,"org.eclipse.ui.edit.paste",1637065233979
executed,command,org.eclipse.ui,3.6.1.M20100826-1330,"org.eclipse.ui.file.save",1637065257585
activated,editor,org.eclipse.jdt.ui,3.6.1.r361_v20100825-0800,"org.eclipse.jdt.ui.CompilationUnitEditor",1637065262371
activated,editor,org.eclipse.jdt.ui,3.6.1.r361_v20100825-0800,"org.eclipse.jdt.ui.CompilationUnitEditor",1637065263815
activated,editor,org.eclipse.jdt.ui,3.6.1.r361_v20100825-0800,"org.eclipse.jdt.ui.CompilationUnitEditor",1637065264846
activated,editor,org.eclipse.jdt.ui,3.6.1.r361_v20100825-0800,"org.eclipse.jdt.ui.CompilationUnitEditor",1637065266612
deactivated,workbench,org.eclipse.ui.workbench,3.6.1.M20100826-1330,"",1637065270038
activated,workbench,org.eclipse.ui.workbench,3.6.1.M20100826-1330,"",1637065276933
deactivated,workbench,org.eclipse.ui.workbench,3.6.1.M20100826-1330,"",1637065278162
activated,workbench,org.eclipse.ui.workbench,3.6.1.M20100826-1330,"",1637065280410
opened,view,org.eclipse.ui.console,3.5.0.v20100526,"org.eclipse.ui.console.ConsoleView",1637065282531
activated,view,org.eclipse.ui.console,3.5.0.v20100526,"org.eclipse.ui.console.ConsoleView",1637065294940
activated,editor,org.eclipse.jdt.ui,3.6.1.r361_v20100825-0800,"org.eclipse.jdt.ui.CompilationUnitEditor",1637065303996
deactivated,workbench,org.eclipse.ui.workbench,3.6.1.M20100826-1330,"",1637065311419
activated,workbench,org.eclipse.ui.workbench,3.6.1.M20100826-1330,"",1637065338118
executed,command,org.eclipse.ui,3.6.1.M20100826-1330,"org.eclipse.ui.file.save",1637065354437
deactivated,workbench,org.eclipse.ui.workbench,3.6.1.M20100826-1330,"",1637065356441
activated,workbench,org.eclipse.ui.workbench,3.6.1.M20100826-1330,"",1637065359770
deactivated,workbench,org.eclipse.ui.workbench,3.6.1.M20100826-1330,"",1637065376496
deactivated,workbench,org.eclipse.ui.workbench,3.6.1.M20100826-1330,"",1637065381365
deactivated,workbench,org.eclipse.ui.workbench,3.6.1.M20100826-1330,"",1637065382231
deactivated,workbench,org.eclipse.ui.workbench,3.6.1.M20100826-1330,"",1637065385127
activated,workbench,org.eclipse.ui.workbench,3.6.1.M20100826-1330,"",1637066377680
deactivated,workbench,org.eclipse.ui.workbench,3.6.1.M20100826-1330,"",1637066389540
activated,workbench,org.eclipse.ui.workbench,3.6.1.M20100826-1330,"",1637066766920
deactivated,workbench,org.eclipse.ui.workbench,3.6.1.M20100826-1330,"",1637066771529
activated,workbench,org.eclipse.ui.workbench,3.6.1.M20100826-1330,"",1637066774865
closed,workbench,org.eclipse.ui.workbench,3.6.1.M20100826-1330,"",1637066797535
stopped,bundle,org.eclipse.mylyn.ide.ant,3.4.0.v20100608-0100-e3x,"org.eclipse.mylyn.ide.ant",1637066807411
stopped,bundle,org.eclipse.ant.ui,3.5.0.v20100427,"org.eclipse.ant.ui",1637066807755
